<svg width="106" height="44" viewBox="0 0 106 44" fill="none" xmlns="http://www.w3.org/2000/svg">
<g filter="url(#filter0_d)">
<path d="M15.3332 13.0761H4V30.9626H15.805L18.1642 28.6091V15.8626L15.3332 13.0761ZM13.4459 26.7075H8.72768V17.2936H13.4459V26.7075Z" fill="#0162CD"/>
<path d="M36.9856 13.0761L27.8322 27.4606L24.4634 22.0194V30.9626H19.7168V13.0761H24.4634L27.8794 18.941L31.8899 13.0761H36.9856Z" fill="#0162CD"/>
<path d="M49.4317 13.0761V30.9626H44.7135V22.1135L40.8634 27.4794L36.9472 22.1794V30.9626H32.2007V23.1773L37.7305 14.4882L40.9106 19.4776L44.4964 13.0761H49.4317Z" fill="#0162CD"/>
<path d="M96.8699 24.8153C96.5207 26.4439 95.879 27.9596 95.0015 29.3152L97.8701 33.3067L96.4452 34.7282L95.0203 36.1497L91.0193 33.2878C89.6604 34.1633 88.1411 34.8035 86.5086 35.1518L85.7065 40H81.6866L80.8845 35.1518C79.771 34.9165 78.7046 34.5399 77.7138 34.0504L80.2334 31.5368C81.3186 31.9322 82.4792 32.1393 83.706 32.1393C89.3113 32.1393 93.8596 27.6018 93.8596 22.0099C93.8596 16.4181 89.3113 11.8805 83.6965 11.8805C78.0913 11.8805 73.5429 16.4181 73.5429 22.0099C73.5429 23.7139 73.9675 25.3237 74.713 26.7357L76.8457 24.6082C76.5343 23.7986 76.3644 22.9231 76.3644 22.0005C76.3644 17.9619 79.6483 14.6859 83.6965 14.6859C84.6968 14.6859 85.6499 14.8836 86.5181 15.2507L80.7901 20.965V24.9094H84.9233L90.5191 19.3176C90.8494 20.146 91.0287 21.0591 91.0287 22.0005C91.0287 26.0391 87.7448 29.3152 83.6965 29.3152C82.7435 29.3152 81.8281 29.1363 80.9883 28.7974L76.8457 32.9301L76.3738 33.269L72.3728 36.1309L69.5324 33.2973L72.4011 29.3057C71.5235 27.9501 70.8818 26.4345 70.5326 24.8059L65.6729 24.0057V19.9954L70.5326 19.1952C70.8818 17.5666 71.5235 16.0509 72.4011 14.6953L69.5229 10.7038L70.9478 9.29171L72.3728 7.8702L76.3738 10.732C77.7327 9.85654 79.252 9.21639 80.8845 8.86808L81.6866 4.0199H85.7065L86.5086 8.86808C88.1411 9.21639 89.6604 9.85654 91.0193 10.732L95.0203 7.8702L97.8701 10.7038L95.0015 14.6953C95.879 16.0509 96.5207 17.5666 96.8699 19.1952L101.73 19.9954V24.0057L96.8699 24.8153Z" fill="#0162CD"/>
<path d="M59.6428 18.9692V17.0206H55.5568V20.2778H61.2376L63.927 22.8572V28.8445L61.7943 30.9626H53.3864L51.1028 28.6844V25.5967H55.5568V27.2912H59.6428V24.3352H53.8205L51.1028 21.7181V15.7591L53.7922 13.0761H61.3886L63.927 15.6085V18.9692H59.6428Z" fill="#0162CD"/>
</g>
<defs>
<filter id="filter0_d" x="0" y="0.0198975" width="105.73" height="43.9801" filterUnits="userSpaceOnUse" color-interpolation-filters="sRGB">
<feFlood flood-opacity="0" result="BackgroundImageFix"/>
<feColorMatrix in="SourceAlpha" type="matrix" values="0 0 0 0 0 0 0 0 0 0 0 0 0 0 0 0 0 0 127 0"/>
<feOffset/>
<feGaussianBlur stdDeviation="2"/>
<feColorMatrix type="matrix" values="0 0 0 0 0 0 0 0 0 0 0 0 0 0 0 0 0 0 0.25 0"/>
<feBlend mode="normal" in2="BackgroundImageFix" result="effect1_dropShadow"/>
<feBlend mode="normal" in="SourceGraphic" in2="effect1_dropShadow" result="shape"/>
</filter>
</defs>
</svg>
